<svg xmlns="http://www.w3.org/2000/svg" xmlns:xlink="http://www.w3.org/1999/xlink" width="108.121" height="53.803" viewBox="0 0 108.121 53.803">
  <defs>
    <radialGradient id="radial-gradient" cx="0.5" cy="0.5" r="0.5" gradientUnits="objectBoundingBox">
      <stop offset="0.182" stop-color="#fff"/>
      <stop offset="0.269" stop-color="#d8d6d6"/>
      <stop offset="0.438" stop-color="#a8a5a6"/>
      <stop offset="0.6" stop-color="#888586"/>
      <stop offset="0.751" stop-color="#737272"/>
      <stop offset="0.887" stop-color="#676768"/>
      <stop offset="0.994" stop-color="#636465"/>
    </radialGradient>
  </defs>
  <g id="Lens_Logo_Teal_E" data-name="Lens Logo Teal E" transform="translate(-34.3 -131.11)">
    <path id="Path_8" data-name="Path 8" d="M34.3,131.11h4.469v53.772H34.3Z" fill="#1c9997"/>
    <path id="Path_9" data-name="Path 9" d="M91.28,256.785c0-10.685,7.682-19.135,18.226-19.135,9.078,0,17.109,6.145,17.389,18.994H95.61v.209c0,8.24,5.726,14.735,14.386,14.735a14.943,14.943,0,0,0,13.477-7.96l3.353,2.164a19.1,19.1,0,0,1-16.9,9.917C98.754,275.71,91.28,267.4,91.28,256.785Zm31.006-3.841c-1.4-7.822-6.844-11.244-12.849-11.244-7.053,0-12.15,4.818-13.477,11.244Z" transform="translate(-48.579 -90.832)" fill="#1c9997"/>
    <path id="Path_10" data-name="Path 10" d="M376.984,237.17c8.86,0,14.1,5.741,14.1,15.521V275.3h-4.537V252.832c0-7.37-3.4-11.339-9.567-11.339-6.237,0-9.567,3.969-9.567,11.339V275.3H362.88V252.691C362.88,242.91,368.054,237.17,376.984,237.17Z" transform="translate(-280.135 -90.423)" fill="#1c9997"/>
    <g id="Group_6" data-name="Group 6" transform="translate(87.622 150.867)">
      <circle id="Ellipse_3" data-name="Ellipse 3" cx="3.895" cy="3.895" r="3.895" transform="translate(5.331 5.331)" fill="url(#radial-gradient)"/>
      <circle id="Ellipse_4" data-name="Ellipse 4" cx="9.227" cy="9.227" r="9.227" transform="translate(0 0)" fill="none" stroke="#636465" stroke-width="4"/>
    </g>
    <path id="Path_11" data-name="Path 11" d="M575.881,274.894v-4.108c2.832.283,5.452.425,7.011.425,5.594,0,8.357-1.912,8.357-5.877,0-2.832-1.558-4.745-5.523-7.223l-2.549-1.629c-5.169-3.186-7.506-6.231-7.506-10.268,0-5.523,4.391-9.064,11.614-9.064,1.488,0,3.611.142,5.594.354v3.825c-2.125-.212-3.754-.283-4.886-.283-5.1,0-7.86,1.912-7.86,5.169,0,2.478,1.7,4.391,5.735,6.869l2.691,1.7c5.1,3.257,7.294,6.232,7.294,10.48,0,6.232-4.745,10.055-12.817,10.055C581.333,275.319,578.642,275.106,575.881,274.894Z" transform="translate(-461.551 -90.406)" fill="#1c9997"/>
    <g id="Group_7" data-name="Group 7" transform="translate(132.337 145.043)">
      <path id="Path_12" data-name="Path 12" d="M700.707,226.332H699.24v-.722h3.7v.722h-1.467v5.16h-.762v-5.16Z" transform="translate(-699.24 -225.61)" fill="#1c9997"/>
      <path id="Path_13" data-name="Path 13" d="M729.96,225.61h.793l1.992,3.555,1.992-3.555h.777v5.881h-.73v-4.566l-1.8,3.242H732.5l-1.809-3.242v4.566h-.73Z" transform="translate(-725.431 -225.61)" fill="#1c9997"/>
    </g>
  </g>
</svg>
