<svg xmlns="http://www.w3.org/2000/svg" width="11" height="13.111" viewBox="0 0 11 13.111">
    <g id="single-folded-content" transform="translate(-7.25 -1.25)">
        <path id="Path_47" data-name="Path 47" d="M30,2V5.167h3.167" transform="translate(-16.667)" fill="none"
              stroke="#a1a1a1" stroke-linecap="round" stroke-linejoin="round" stroke-width="1.5"/>
        <path id="Path_48" data-name="Path 48" d="M12.333,2H6V13.611h9.5V5.167Z" transform="translate(2)" fill="none"
              stroke="#a1a1a1" stroke-linecap="round" stroke-linejoin="round" stroke-width="1.5"/>
        <line id="Line_25" data-name="Line 25" x2="3.619" transform="translate(10.111 10.143)" fill="none"
              stroke="#a1a1a1" stroke-linecap="round" stroke-linejoin="round" stroke-width="1"/>
        <line id="Line_26" data-name="Line 26" x2="3.619" transform="translate(10.111 8.333)" fill="none"
              stroke="#a1a1a1" stroke-linecap="round" stroke-linejoin="round" stroke-width="1"/>
        <line id="Line_27" data-name="Line 27" x2="1.448" transform="translate(10.111 6.524)" fill="none"
              stroke="#a1a1a1" stroke-linecap="round" stroke-linejoin="round" stroke-width="1"/>
    </g>
</svg>
